<svg width="64" xmlns="http://www.w3.org/2000/svg" height="64" viewBox="0 0 32 32" xmlns:xlink="http://www.w3.org/1999/xlink">
 <defs>
  <linearGradient id="a" y1="392.36" y2="365.36" gradientUnits="userSpaceOnUse" x2="0" gradientTransform="translate(309.57 152.44)">
   <stop stop-color="#ffffff" stop-opacity="0"/>
   <stop offset="1" stop-color="#ffffff" stop-opacity=".2"/>
  </linearGradient>
  <linearGradient id="b" y1="17" x1="47" y2="24" gradientUnits="userSpaceOnUse" x2="54" gradientTransform="translate(357.57 507.8)">
   <stop stop-color="#060606"/>
   <stop offset="1" stop-opacity="0"/>
  </linearGradient>
  <path id="c" d="m389.57 545.8v-28h15l7 7v21h-14z"/>
 </defs>
 <g transform="translate(-384.57-515.8)">
  <g color-rendering="auto" color-interpolation-filters="linearRGB" shape-rendering="auto" image-rendering="auto" text-rendering="auto" color-interpolation="sRGB" color="#000000">
   <use fill="#eeeeee" xlink:href="#c"/>
   <g transform="scale(1-1)">
    <rect opacity=".6" x="389.57" y="-518.8" width="15" fill="#ffffff" height="1"/>
    <rect opacity=".15" x="389.57" y="-545.8" width="22" height="1"/>
   </g>
   <path opacity=".5" fill-rule="evenodd" d="m411.57 524.8l-7-7v7z"/>
   <path opacity=".6" d="m394.57 537.8v-1h6v1zm0-2v-1h12v1zm0-3v-1h8v1zm0-2v-1h12v1zm0-2v-1h12v1z"/>
  </g>
  <use fill="url(#a)" xlink:href="#c"/>
  <path opacity=".1" fill="url(#b)" fill-rule="evenodd" d="m404.57 524.8l7 7v-7z"/>
 </g>
</svg>
